{
    "name": "Debug",
    "maps": [
        {
            "name": "Player",
            "id": "5da2b8eb-5452-4360-b769-7008e4370527",
            "actions": [
                {
                    "name": "Test",
                    "type": "Button",
                    "id": "c762a255-0eea-49d6-a0fb-552708a677ef",
                    "expectedControlType": "Button",
                    "processors": "",
                    "interactions": "",
                    "initialStateCheck": false
                }
            ],
            "bindings": [
                {
                    "name": "",
                    "id": "716b69af-14aa-48f5-8faf-62b56b3065b3",
                    "path": "<Keyboard>/space",
                    "interactions": "",
                    "processors": "",
                    "groups": "",
                    "action": "Test",
                    "isComposite": false,
                    "isPartOfComposite": false
                }
            ]
        }
    ],
    "controlSchemes": []
}